%YAML 1.1
%TAG !u! tag:unity3d.com,2011:
--- !u!221 &22100000
AnimatorOverrideController:
  m_ObjectHideFlags: 0
  m_PrefabParentObject: {fileID: 0}
  m_PrefabInternal: {fileID: 0}
  m_Name: Player2_Controller
  m_Controller: {fileID: 9100000, guid: 95db1d3a99ee72846bb74e2aa5a5de12, type: 2}
  m_Clips:
  - m_OriginalClip: {fileID: 7400000, guid: bbbf1659ecb1fa94d9a89e77ce11009d, type: 2}
    m_OverrideClip: {fileID: 7400000, guid: d75e5528569912b46a6eb0ea1965c937, type: 2}
  - m_OriginalClip: {fileID: 7400000, guid: e7d8d1a2e2e782a4680548de4074eb92, type: 2}
    m_OverrideClip: {fileID: 7400000, guid: b3138466f8d1c1749a07be3442bef57d, type: 2}
  - m_OriginalClip: {fileID: 7400000, guid: 5f19d9e6a7a5cdc4194a8ec719650bc8, type: 2}
    m_OverrideClip: {fileID: 7400000, guid: 13449ceffda6d104395368fa2643ba94, type: 2}
  - m_OriginalClip: {fileID: 7400000, guid: c69334f9bbd64444789a95afb1773c25, type: 2}
    m_OverrideClip: {fileID: 7400000, guid: b79d2694397274c4cba32e36ecfd4348, type: 2}
  - m_OriginalClip: {fileID: 7400000, guid: 6dc6050982d9f5a49bde647fba0e1a39, type: 2}
    m_OverrideClip: {fileID: 7400000, guid: ef68bcc9eba93d841b1f127000b8b7c9, type: 2}
