%YAML 1.1
%TAG !u! tag:unity3d.com,2011:
--- !u!221 &22100000
AnimatorOverrideController:
  m_ObjectHideFlags: 0
  m_PrefabParentObject: {fileID: 0}
  m_PrefabInternal: {fileID: 0}
  m_Name: Button_green_Controller (Override)
  m_Controller: {fileID: 9100000, guid: 72e3f98b68e520848b61388d877aecdf, type: 2}
  m_Clips:
  - m_OriginalClip: {fileID: 7400000, guid: d53f473843c57d645a3a9edb10d6c5dc, type: 2}
    m_OverrideClip: {fileID: 7400000, guid: ddf8fc5b42d2c334584ec5e689b758ce, type: 2}
