%YAML 1.1
%TAG !u! tag:unity3d.com,2011:
--- !u!74 &7400000
AnimationClip:
  m_ObjectHideFlags: 0
  m_PrefabParentObject: {fileID: 0}
  m_PrefabInternal: {fileID: 0}
  m_Name: Water
  serializedVersion: 6
  m_Legacy: 0
  m_Compressed: 0
  m_UseHighQualityCurve: 1
  m_RotationCurves: []
  m_CompressedRotationCurves: []
  m_EulerCurves: []
  m_PositionCurves: []
  m_ScaleCurves: []
  m_FloatCurves: []
  m_PPtrCurves:
  - curve:
    - time: 0
      value: {fileID: 21300000, guid: b9d3be22399359345ab7ef5470a99b50, type: 3}
    - time: 0.083333336
      value: {fileID: 21300000, guid: d5cd87b87f75bbb49b0c59af9ce5085d, type: 3}
    - time: 0.16666667
      value: {fileID: 21300000, guid: d57afc363c4ec4541943ac421f830f48, type: 3}
    - time: 0.25
      value: {fileID: 21300000, guid: 09b099ff10df01a43966e50a9fec2022, type: 3}
    - time: 0.33333334
      value: {fileID: 21300000, guid: 89aee50216366e8438d95f2683b6400e, type: 3}
    - time: 0.41666666
      value: {fileID: 21300000, guid: fcd66ef202089c640ae29eb97c8e6d91, type: 3}
    - time: 0.5
      value: {fileID: 21300000, guid: c8f1011bc17faad4bb0d6f3ea7b6c688, type: 3}
    - time: 0.5833333
      value: {fileID: 21300000, guid: 72be4c781c531d74ea647d0d4a8f9f69, type: 3}
    - time: 0.6666667
      value: {fileID: 21300000, guid: fe5db8c26258afc4e9cfb9341df0c3ad, type: 3}
    - time: 0.75
      value: {fileID: 21300000, guid: 715556cde6af6e2439c821eeb8b27b00, type: 3}
    - time: 0.8333333
      value: {fileID: 21300000, guid: 00d7352563feb314189fe735c29806fb, type: 3}
    - time: 0.9166667
      value: {fileID: 21300000, guid: da23c0314601b504a8fe72f3d477c8ba, type: 3}
    - time: 1
      value: {fileID: 21300000, guid: 89bcab7e96331814eb3ddc8a06f760c0, type: 3}
    - time: 1.0833334
      value: {fileID: 21300000, guid: 7b86a91070b045641918a56cc5cc79ce, type: 3}
    - time: 1.1666666
      value: {fileID: 21300000, guid: 89ec6bc96e5c9e9478fa53639d1c5d1a, type: 3}
    - time: 1.25
      value: {fileID: 21300000, guid: e02bd61fb5e633f468e57ebd73b7b10a, type: 3}
    - time: 1.3333334
      value: {fileID: 21300000, guid: 4146ec0be140fb04ba81019adfb00167, type: 3}
    - time: 1.4166666
      value: {fileID: 21300000, guid: a2cabbd21b0c4854b8412761e334397b, type: 3}
    - time: 1.5
      value: {fileID: 21300000, guid: 92d52b445ecddab438cdf8112ae6e7f6, type: 3}
    - time: 1.5833334
      value: {fileID: 21300000, guid: 7381c88691a81e2479b163889746e269, type: 3}
    attribute: m_Sprite
    path: 
    classID: 212
    script: {fileID: 0}
  m_SampleRate: 12
  m_WrapMode: 0
  m_Bounds:
    m_Center: {x: 0, y: 0, z: 0}
    m_Extent: {x: 0, y: 0, z: 0}
  m_ClipBindingConstant:
    genericBindings:
    - serializedVersion: 2
      path: 0
      attribute: 0
      script: {fileID: 0}
      typeID: 212
      customType: 23
      isPPtrCurve: 1
    pptrCurveMapping:
    - {fileID: 21300000, guid: b9d3be22399359345ab7ef5470a99b50, type: 3}
    - {fileID: 21300000, guid: d5cd87b87f75bbb49b0c59af9ce5085d, type: 3}
    - {fileID: 21300000, guid: d57afc363c4ec4541943ac421f830f48, type: 3}
    - {fileID: 21300000, guid: 09b099ff10df01a43966e50a9fec2022, type: 3}
    - {fileID: 21300000, guid: 89aee50216366e8438d95f2683b6400e, type: 3}
    - {fileID: 21300000, guid: fcd66ef202089c640ae29eb97c8e6d91, type: 3}
    - {fileID: 21300000, guid: c8f1011bc17faad4bb0d6f3ea7b6c688, type: 3}
    - {fileID: 21300000, guid: 72be4c781c531d74ea647d0d4a8f9f69, type: 3}
    - {fileID: 21300000, guid: fe5db8c26258afc4e9cfb9341df0c3ad, type: 3}
    - {fileID: 21300000, guid: 715556cde6af6e2439c821eeb8b27b00, type: 3}
    - {fileID: 21300000, guid: 00d7352563feb314189fe735c29806fb, type: 3}
    - {fileID: 21300000, guid: da23c0314601b504a8fe72f3d477c8ba, type: 3}
    - {fileID: 21300000, guid: 89bcab7e96331814eb3ddc8a06f760c0, type: 3}
    - {fileID: 21300000, guid: 7b86a91070b045641918a56cc5cc79ce, type: 3}
    - {fileID: 21300000, guid: 89ec6bc96e5c9e9478fa53639d1c5d1a, type: 3}
    - {fileID: 21300000, guid: e02bd61fb5e633f468e57ebd73b7b10a, type: 3}
    - {fileID: 21300000, guid: 4146ec0be140fb04ba81019adfb00167, type: 3}
    - {fileID: 21300000, guid: a2cabbd21b0c4854b8412761e334397b, type: 3}
    - {fileID: 21300000, guid: 92d52b445ecddab438cdf8112ae6e7f6, type: 3}
    - {fileID: 21300000, guid: 7381c88691a81e2479b163889746e269, type: 3}
  m_AnimationClipSettings:
    serializedVersion: 2
    m_AdditiveReferencePoseClip: {fileID: 0}
    m_AdditiveReferencePoseTime: 0
    m_StartTime: 0
    m_StopTime: 1.6666667
    m_OrientationOffsetY: 0
    m_Level: 0
    m_CycleOffset: 0
    m_HasAdditiveReferencePose: 0
    m_LoopTime: 1
    m_LoopBlend: 0
    m_LoopBlendOrientation: 0
    m_LoopBlendPositionY: 0
    m_LoopBlendPositionXZ: 0
    m_KeepOriginalOrientation: 0
    m_KeepOriginalPositionY: 1
    m_KeepOriginalPositionXZ: 0
    m_HeightFromFeet: 0
    m_Mirror: 0
  m_EditorCurves: []
  m_EulerEditorCurves: []
  m_HasGenericRootTransform: 0
  m_HasMotionFloatCurves: 0
  m_GenerateMotionCurves: 0
  m_Events: []
